{
  "files": {
    "main.css": "/static/css/main.48af56da.css",
    "main.js": "/static/js/main.593c5854.js",
    "static/media/face_lose.svg": "/static/media/face_lose.b71d4beefbc0eff43bc8.svg",
    "static/media/digits_back.svg": "/static/media/digits_back.bd9c7ed7eb25274cf5c4.svg",
    "static/media/face_frightened.svg": "/static/media/face_frightened.33ac97217954455f67b5.svg",
    "static/media/face_idle.svg": "/static/media/face_idle.0a00432fc9017154b894.svg",
    "static/media/face_pressed.svg": "/static/media/face_pressed.3b633818ead1117db533.svg",
    "static/media/hh_logo.svg": "/static/media/hh_logo.16df59f07dbd2cbff3eb82241807ea26.svg",
    "static/media/mine.svg": "/static/media/mine.248128544d46bbb0372a.svg",
    "static/media/mine_red.svg": "/static/media/mine_red.f7e40740f79f91bf002c.svg",
    "static/media/digit_8.svg": "/static/media/digit_8.d8af11a0a553bfe2d960.svg",
    "static/media/marked.svg": "/static/media/marked.4b1e382d03bad47ced93.svg",
    "static/media/d9.svg": "/static/media/d9.131acf51e64ef14d2b71.svg",
    "static/media/d7.svg": "/static/media/d7.cfe439f2f84c26a2db83.svg",
    "static/media/d6.svg": "/static/media/d6.97628af09f2711befbd1.svg",
    "static/media/d8.svg": "/static/media/d8.d47e9b535ddfc0b378f2.svg",
    "static/media/d5.svg": "/static/media/d5.8f041d7788830967b76c.svg",
    "static/media/d2.svg": "/static/media/d2.37d6fe50c5b7b94e216c.svg",
    "static/media/d4.svg": "/static/media/d4.b9c68388035005bba3fe.svg",
    "static/media/d3.svg": "/static/media/d3.0dee4f680669ab346dac.svg",
    "static/media/d0.svg": "/static/media/d0.d2bc9aa2cef23383abd4.svg",
    "static/media/d1.svg": "/static/media/d1.5a076e6c1bf02049783b.svg",
    "static/media/digit_3.svg": "/static/media/digit_3.834f4781adae06d2216b.svg",
    "static/media/digit_2.svg": "/static/media/digit_2.e2713a8e95ef45b8dbd8.svg",
    "static/media/digit_6.svg": "/static/media/digit_6.d6b648733ffa580268fc.svg",
    "static/media/digit_5.svg": "/static/media/digit_5.07e0ff6bf140fa00c341.svg",
    "static/media/digit_4.svg": "/static/media/digit_4.b3da1f3a2ea4ae2bbec4.svg",
    "static/media/digit_7.svg": "/static/media/digit_7.0297b80998d604fc34bb.svg",
    "static/media/digit_1.svg": "/static/media/digit_1.b9cae383e94795aaa11c.svg",
    "static/media/gitlab_logo.svg": "/static/media/gitlab_logo.b559122b4e0fe55b0ce806f3ad6a8d11.svg",
    "static/media/idle_closed.svg": "/static/media/idle_closed.184e834021cdfaee6a82.svg",
    "static/media/VersionHistory.md": "/static/media/VersionHistory.f8cab0c4cbd5a544cbdf.md",
    "static/media/idle_opened.svg": "/static/media/idle_opened.72b7fefbc463212e84a0.svg",
    "index.html": "/index.html",
    "main.48af56da.css.map": "/static/css/main.48af56da.css.map",
    "main.593c5854.js.map": "/static/js/main.593c5854.js.map"
  },
  "entrypoints": [
    "static/css/main.48af56da.css",
    "static/js/main.593c5854.js"
  ]
}